…
``` r
top10 <- pbmc.markers %>% 
            group_by(cluster) %>% 
            top_n(n = 10, wt = avg_log2FC)

top10
```

    ## Registered S3 method overwritten by 'cli':
    ##   method     from         
    ##   print.boxx spatstat.geom

    ## # A tibble: 90 x 7
    ## # Groups:   cluster [9]
    ##        p_val avg_log2FC pct.1 pct.2 p_val_adj cluster gene     
    ##        <dbl>      <dbl> <dbl> <dbl>     <dbl> <fct>   <chr>    
    ##  1 3.04e-104      0.999 0.895 0.592 4.16e-100 0       LDHB     
    ##  2 1.10e- 81      1.33  0.432 0.111 1.51e- 77 0       CCR7     
    ##  3 4.20e- 79      0.965 0.848 0.407 5.75e- 75 0       CD3D     
    ##  4 5.53e- 49      0.815 0.71  0.402 7.59e- 45 0       CD3E     
    ##  5 2.53e- 48      1.08  0.336 0.108 3.46e- 44 0       PRKCQ-AS1
    ##  6 1.40e- 47      0.958 0.625 0.358 1.91e- 43 0       NOSIP    
    ##  7 3.99e- 41      0.974 0.316 0.109 5.47e- 37 0       LEF1     
    ##  8 6.44e- 41      0.786 0.611 0.329 8.83e- 37 0       IL7R     
    ##  9 5.75e- 37      0.852 0.42  0.188 7.89e- 33 0       PIK3IP1  
    ## 10 3.67e- 32      0.908 0.259 0.087 5.03e- 28 0       MAL      
    ## # ... with 80 more rows
…
